Quirk,Quirk ID Code,VARIABLE CODE,devname,Trait,Dev Variable,Trait Type,Type,Date Description (for twitter page),Effect,Question,Answer,Supporting 1,Supporting 2,Supporting 3,Supporting 4,Opposing 1,Opposing 2,Opposing 3,Opposing 4
Spiritual,W1,W1:_Spiritual,,Weird vs. Normal,Goodness,Weird,Standard,CHARACTER seems like they're in crystals and the moon.,Weird Quirk Roll,Is there anything your partner should know about you?,I can act as a medium between this world and the next.,,,,,,,,
Knowledge of ethereal plains,W2,W2:_Knowledge_of_ethereal_plains,,Weird vs. Normal,,Weird,Standard,,Weird Quirk Roll,What do you like doing in your spare time?,"I have a portal to another realm which is very pleasant this time of year, going on walks through another dimension really puts a perspective on things",,,,,,,,
Repulsive visage,W3,W3:_Repulsive_visage,,Weird vs. Normal,,Weird,Standard,,Weird Quirk Roll,Is there anything your partner should know about you?,I recently did a test to prove i was attractive. I got -1/10 score and the tester burnet their own eyes out,,,,,,,,
Farts inexplicably,W4,W4:_Farts_inexplicably,,Weird vs. Normal,,Weird,Standard,,Weird Quirk Roll,Do you have any secrets?,Ummm... well... sometimes I can't control what comes out of my ass...,,,,,,,,
Foot fetishist,W5,W5:_Foot_fetishist,,Weird vs. Normal,,Weird,Standard,,Weird Quirk Roll,Do you have any secrets?,"I am a massive feet fan, I've paid many streamers to ""show feet""",,,,,,,,
Cosplayer,W6,W6:_Cosplayer,,Weird vs. Normal,,Weird,Standard,,Weird Quirk Roll,What do you like doing in your spare time?,I like to dress up as my favourite comic book characters,,,,,,,,
Actually three cats in a coat,W7,W7:_Actually_three_cats_in_a_coat,,Weird vs. Normal,,Weird,Wildcard,,,Do you have any secrets?,Nobody knows this... but I'm actually just 3 cats in a tall coat,,,,,,,,
Bearer of an ancient curse,W8,W8:_Bearer_of_an_ancient_curse,,Weird vs. Normal,,Weird,Special,,"IF target = Normal - MINUS the target's Normal value from overall date score
IF target = Weird - PLUS the target's Weird value from overall date score",Is there anything your partner should know about you?,"Yes, unfortunately I carry an ancient curse.",,,,,,,,
Likes to work out,N1,N1:_Likes_to_work_out,,Weird vs. Normal,,Normal,Standard,CHARACTER looks really buff.,Normal Quirk Roll,What do you like doing in your spare time?,Every minute of free time I do burpees,,,,,,,,
Likes to pop bubble wrap,N2,N2:_Likes_to_pop_bubblewrap,,Weird vs. Normal,,Normal,Standard,,Normal Quirk Roll,What do you like doing in your spare time?,I LOVE BUBBLE WRAP!!!! It's just so satisfying!!!,,,,,,,,
Daily Mail reader,N3,N3:_Daily_Mail_reader,,Weird vs. Normal,,Normal,Standard,,Normal Quirk Roll,What do you like doing in your spare time?,"Every morning the first thing i do is get a copy of the daily mail, gotta keep track of what's going on!",,,,,,,,
Quite boring,N4,N4:_Quite_boring,,Weird vs. Normal,,Normal,Standard,,Normal Quirk Roll,Do you have any secrets?,"Honestly? People say I'm really boring, but I take that as a compliment!",,,,,,,,
Sock collector,N5,N5:_Sock_collector,,Weird vs. Normal,,Normal,Standard,,Normal Quirk Roll,Do you have any secrets?,I filled my garage with extremely rare and expensive socks. no really i do.,,,,,,,,
An 'Ok' person,N6,N6:_An_'Ok'_person,,Weird vs. Normal,,Normal,Standard,,Normal Quirk Roll,Is there anything your partner should know about you?,"I guess I'm not that special, but most people think I'm good enough",,,,,,,,
Never stops talking about themself,N7,N7:_Never_stops_talking_about_themself,,Weird vs. Normal,,Normal,Wildcard,,,"
Is there anything your partner should know about you?
","Um, well, how much time have you got? I saved the president of the UN, I stopped the Evil army from invading Birmingham, I starred in my own movie about me, I am VERY attractive, I've have sex TWICE...",,,,,,,,
Coldplay fan,N8,N8:_Coldplay_fan,,Weird vs. Normal,,Normal,Special,CHARACTER likes to volunteer at a nursing home!,"IF target = Weird - MINUS the target's Weird value from overall date score
IF target = Normal - PLUS the target's Normal from overall date score",What do you like doing in your spare time?,I almost always have XXX by Coldplay running in the background,,,,,,,,
Wants to settle down and burn everything,V1,V1:_Wants_to_settle_down_and_burn_everything,,Villain vs Hero,,Villain,Standard,,Villain Quirk Roll,Is there anything your partner should know about you?,I really want to settle down and get my only little slice of the good life. and then fake my own death and burn everything to the ground.,,,,,,,,
Recovering maniac,V2,V2:_Recovering_maniac,,Villain vs Hero,,Villain,Standard,,Villain Quirk Roll,Is there anything your partner should know about you?,"I was recently released from a looney bin. I'm fine now, I swear ;)",,,,,,,,
Cultivates no fucks,V3,V3:_Cultivates_no_fucks,,Villain vs Hero,,Villain,Standard,,Villain Quirk Roll,Do you have any secrets?,I have yet to give a fuck about anything.,,,,,,,,
Rich beyond belief,V4,V4:_Rich_beyond_belief,,Villain vs Hero,,Villain,Standard,,Villain Quirk Roll,Is there anything your partner should know about you?,"You won't believe how much wealth I have accumulated, I probably spend more on lunch today that you make in a year!",,,,,,,,
Destroyer of worlds,V5,V5:_Destroyer_of_worlds,,Villain vs Hero,,Villain,Standard,,Villain Quirk Roll,What do you like doing in your spare time?,"I have a habit of destroying any world i end up on, Earth is the 8th planet I've tried so fingers crossed!",,,,,,,,
Kind of a dick,V6,V6:_Kind_of_a_dick,,Villain vs Hero,,Villain,Standard,,Villain Quirk Roll,What do you like doing in your spare time?,When I was at school I loved to slam doors in the faces of younger kids just to hear them cry.,,,,,,,,
Trying to assassinate their Ex,V7,V7:_Trying_to_assassinate_their_Ex,,Villain vs Hero,,Villain,Wildcard,,,Is there anything your partner should know about you?,I am currently formulating a plan to eradicate my ex from the face of the earth. For love of course ;),,,,,,,,
Hunted by the authorities,V8,V8:_Hunted_by_the_authorites,,Villain vs Hero,,Villain,Special,,"IF target = Hero - MINUS the target's Hero value from overall date score
IF target = Villain - PLUS the target's Villain from overall date score",Is there anything your partner should know about you?,"I am fourth on the world's most wanted list, but I'm hoping to bump that up to third by the end of the year.",,,,,,,,
Likes to volunteer at the nursing home,G1,G1:_Likes_to_volunteer_at_the_nursing_home,,Villain vs Hero,,Good,Standard,,Hero Quirk Roll,What do you like doing in your spare time?,I like volunteering at the local nursing home.,,,,,,,,
Snitch,G2,G2:_Snitch,,Villain vs Hero,,Good,Standard,,Hero Quirk Roll,Do you have any secrets?,"No... I don't believe in ""secrets"".",,,,,,,,
Friend of the fishmen of Atlantis,G3,G3:_Friend_of_the_fishmen_of_Atlantis,,Villain vs Hero,,Good,Standard,,Hero Quirk Roll,Do you have any secrets?,I happen to be friends with the fishmen of Atlantis!,,,,,,,,
Last surviving member of a lost royal family,G4,G4:_Last_surviving_member_of_a_lost_royal_family,,Villain vs Hero,,Good,Standard,,Hero Quirk Roll,Do you have any secrets?,I actually am the last surviving member of a lost royal family! ...please tell me you believe me,,,,,,,,
Has the power of ten-thousand dudes,G5,G5:_Has_the_power_of_ten-thousand_dudes,,Villain vs Hero,,Good,Standard,,Hero Quirk Roll,What do you like doing in your spare time?,"At this point, I have exercised so much in my free time that I have the power of ten-thousand men.",,,,,,,,
Fires lasers (for justice),G6,G6:_Fires_lasers_(for_justice),,Villain vs Hero,,Good,Standard,,Hero Quirk Roll,What do you like doing in your spare time?,I like to fire lasers... for justice!,,,,,,,,
Part of an elite hero squad,G7,G7:_Part_of_an_elite_hero_squad,,Villain vs Hero,,Good,Wildcard,,,Do you have any secrets?,I'm part of an elite hero squad.,,,,,,,,
Bezzies with the President,G8,G8:_Bezzies_with_the_President,,Villain vs Hero,,Good,Special,,"IF target = Villain - MINUS the target's Villain value from overall date score
IF target = Hero - PLUS the target's Hero from overall date score",Do you have any secrets?,"Between you and me, I'm best friends with the president!",,,,,,,,
Good kisser,R1,R1:_Good_kisser,,Romantic vs Hedonist,,Romantic,Standard,,Romantic Quirk Roll,Is there anything your partner should know about you?,I've been told that I'm an excellent kisser,,,,,,,,
Tragic backstory,R2,R2:_Tragic_backstory,,Romantic vs Hedonist,,Romantic,Standard,,Romantic Quirk Roll,Is there anything your partner should know about you?,"My past is a long, difficult, and traumatic one...",,,,,,,,
Likes to hold hands,R3,R3:_Likes_to_hold_hands,,Romantic vs Hedonist,,Romantic,Standard,,Romantic Quirk Roll,Is there anything your partner should know about you?,"I'm apparently quite clingy... but come on, there's nothing wrong with a bit of hand holding...",,,,,,,,
Will sometimes make breakfast,R4,R4:_Will_sometimes_make_breakfast,,Romantic vs Hedonist,,Romantic,Standard,,Romantic Quirk Roll,Is there anything your partner should know about you?,I will not hesitate to make breakfast for them. Do not stop me.,,,,,,,,
Jealous-type,R5,R5:_Jealous-type,,Romantic vs Hedonist,,Romantic,Standard,,Romantic Quirk Roll,Do you have any secrets?,I tend to get jealous quite easily.,,,,,,,,
Likes to be the little spoon,R6,R6:_Likes_to_be_the_little_spoon,,Romantic vs Hedonist,,Romantic,Standard,,Romantic Quirk Roll,Is there anything your partner should know about you?,I prefer being the little spoon.,,,,,,,,
Proposes without warning,R7,R7:_Proposes_without_warning,,Romantic vs Hedonist,,Romantic,Wildcard,,,Is there anything your partner should know about you?,I may accidentally get caught up in the moment and propose out of nowhere... just a heads up.,,,,,,,,
Likes to burst into song,R8,R8:_Likes_to_burst_into_song,,Romantic vs Hedonist,,Romantic,Special,,"IF target = Hedonist - MINUS the target's Hedonist value from overall date score
IF target = Romantic - PLUS the target's Romantic from overall date score",Is there anything your partner should know about you?,I may or may not burst out into song at random intervals.,,,,,,,,
Often drunk,H1,H1:_Often_drunk,,Romantic vs Hedonist,,Hedonist,Standard,,Hedonist Quirk Roll,What do you like doing in your spare time?,You can usually catch me at the bottom of a bottle...,,,,,,,,
Polyamorous,H2,H2:_Polyamorous,,Romantic vs Hedonist,,Hedonist,Standard,,Hedonist Quirk Roll,What do you like doing in your spare time?,People ;),,,,,,,,
Party girl,H3,H3:_Party_girl,,Romantic vs Hedonist,,Hedonist,Standard,,Hedonist Quirk Roll,What do you like doing in your spare time?,I'm quite the party animal!,,,,,,,,
Horny all the time,H4,H4:_Horny_all_the_time,,Romantic vs Hedonist,,Hedonist,Standard,,Hedonist Quirk Roll,Do you have any secrets?,"I don't quite know how to say this, but I am ALWAYS horny.",,,,,,,,
Masochistic,H5,H5:_Masochistic,,Romantic vs Hedonist,,Hedonist,Standard,,Hedonist Quirk Roll,Do you have any secrets?,I'm not impartial to being stepped on or insulted...,,,,,,,,
Great dancer,H6,H6:_Great_dancer,,Romantic vs Hedonist,,Hedonist,Standard,,Hedonist Quirk Roll,What do you like doing in your spare time?,"I love dancing, I pride myself on it!",,,,,,,,
Prankster,H7,H7:_Prankster,,Romantic vs Hedonist,,Hedonist,Wildcard,,,Is there anything your partner should know about you?,"Well, I won't hold myself back from pranking them, that's for sure.",,,,,,,,
Drug lord,H8,H8:_Drug_lord,,Romantic vs Hedonist,,Hedonist,Special,,"IF target = Romantic - MINUS the target's Romantic value from overall date score
IF target = Hedonist- PLUS the target's Hedonist from overall date score",What do you like doing in your spare time?,"I'm gonna trust you and just be honest, I'm a drug lord.",,,,,,,,